C:\Users\skoot\Desktop\Dev Stuff\bPlugins\bEssentials\src\main\java\me\powercas_gamer\bessentials\Commands\WhoisCMD.java
C:\Users\skoot\Desktop\Dev Stuff\bPlugins\bEssentials\src\main\java\me\powercas_gamer\bessentials\main.java
C:\Users\skoot\Desktop\Dev Stuff\bPlugins\bEssentials\src\main\java\me\powercas_gamer\bessentials\Commands\CopyInvCMD.java
C:\Users\skoot\Desktop\Dev Stuff\bPlugins\bEssentials\src\main\java\me\powercas_gamer\bessentials\Events\StaffEvent.java
C:\Users\skoot\Desktop\Dev Stuff\bPlugins\bEssentials\src\main\java\me\powercas_gamer\bessentials\Commands\ReportCMD.java
C:\Users\skoot\Desktop\Dev Stuff\bPlugins\bEssentials\src\main\java\me\powercas_gamer\bessentials\Commands\GameModeCMD.java
C:\Users\skoot\Desktop\Dev Stuff\bPlugins\bEssentials\src\main\java\me\powercas_gamer\bessentials\Commands\GodCMD.java
C:\Users\skoot\Desktop\Dev Stuff\bPlugins\bEssentials\src\main\java\me\powercas_gamer\bessentials\Commands\TeleportALLCMD.java
C:\Users\skoot\Desktop\Dev Stuff\bPlugins\bEssentials\src\main\java\me\powercas_gamer\bessentials\Commands\MuteChatCMD.java
C:\Users\skoot\Desktop\Dev Stuff\bPlugins\bEssentials\src\main\java\me\powercas_gamer\bessentials\Commands\TeleportHereCMD.java
C:\Users\skoot\Desktop\Dev Stuff\bPlugins\bEssentials\src\main\java\me\powercas_gamer\bessentials\Commands\TeleportPositionCMD.java
C:\Users\skoot\Desktop\Dev Stuff\bPlugins\bEssentials\src\main\java\me\powercas_gamer\bessentials\Commands\StaffChatCMD.java
C:\Users\skoot\Desktop\Dev Stuff\bPlugins\bEssentials\src\main\java\me\powercas_gamer\bessentials\Commands\RequestCMD.java
C:\Users\skoot\Desktop\Dev Stuff\bPlugins\bEssentials\src\main\java\me\powercas_gamer\bessentials\Commands\BroadcastCMD.java
C:\Users\skoot\Desktop\Dev Stuff\bPlugins\bEssentials\src\main\java\me\powercas_gamer\bessentials\Events\ChatFormat.java
C:\Users\skoot\Desktop\Dev Stuff\bPlugins\bEssentials\src\main\java\me\powercas_gamer\bessentials\Utils\Style.java
C:\Users\skoot\Desktop\Dev Stuff\bPlugins\bEssentials\src\main\java\me\powercas_gamer\bessentials\Events\PlayerEvent.java
C:\Users\skoot\Desktop\Dev Stuff\bPlugins\bEssentials\src\main\java\me\powercas_gamer\bessentials\Commands\CreativeCMD.java
C:\Users\skoot\Desktop\Dev Stuff\bPlugins\bEssentials\src\main\java\me\powercas_gamer\bessentials\Commands\HealCMD.java
C:\Users\skoot\Desktop\Dev Stuff\bPlugins\bEssentials\src\main\java\me\powercas_gamer\bessentials\Commands\bEssentialsCMD.java
C:\Users\skoot\Desktop\Dev Stuff\bPlugins\bEssentials\src\main\java\me\powercas_gamer\bessentials\Commands\ClearCMD.java
C:\Users\skoot\Desktop\Dev Stuff\bPlugins\bEssentials\src\main\java\me\powercas_gamer\bessentials\Commands\YesCMD.java
C:\Users\skoot\Desktop\Dev Stuff\bPlugins\bEssentials\src\main\java\me\powercas_gamer\bessentials\Commands\PingCMD.java
C:\Users\skoot\Desktop\Dev Stuff\bPlugins\bEssentials\src\main\java\me\powercas_gamer\bessentials\Commands\RankCMD.java
C:\Users\skoot\Desktop\Dev Stuff\bPlugins\bEssentials\src\main\java\me\powercas_gamer\bessentials\Commands\FlyCMD.java
C:\Users\skoot\Desktop\Dev Stuff\bPlugins\bEssentials\src\main\java\me\powercas_gamer\bessentials\Utils\bEssConfig.java
C:\Users\skoot\Desktop\Dev Stuff\bPlugins\bEssentials\src\main\java\me\powercas_gamer\bessentials\Commands\FeedCMD.java
C:\Users\skoot\Desktop\Dev Stuff\bPlugins\bEssentials\src\main\java\me\powercas_gamer\bessentials\Utils\Lang.java
C:\Users\skoot\Desktop\Dev Stuff\bPlugins\bEssentials\src\main\java\me\powercas_gamer\bessentials\Commands\NoCMD.java
C:\Users\skoot\Desktop\Dev Stuff\bPlugins\bEssentials\src\main\java\me\powercas_gamer\bessentials\Managers\CooldownManager.java
C:\Users\skoot\Desktop\Dev Stuff\bPlugins\bEssentials\src\main\java\me\powercas_gamer\bessentials\Commands\RawBroadcastCMD.java
C:\Users\skoot\Desktop\Dev Stuff\bPlugins\bEssentials\src\main\java\me\powercas_gamer\bessentials\Commands\SurvivalCMD.java
C:\Users\skoot\Desktop\Dev Stuff\bPlugins\bEssentials\src\main\java\me\powercas_gamer\bessentials\Commands\TeleportCMD.java
